<?xml version="1.0" encoding="utf-8"?>
<!-- Generator: Adobe Illustrator 19.2.0, SVG Export Plug-In . SVG Version: 6.00 Build 0)  -->
<svg version="1.1" id="Layer_1" xmlns="http://www.w3.org/2000/svg" xmlns:xlink="http://www.w3.org/1999/xlink" x="0px" y="0px"
	 viewBox="0 0 12.001 20.001" style="enable-background:new 0 0 12.001 20.001;" xml:space="preserve">
<style type="text/css">
	.st0{fill-rule:evenodd;clip-rule:evenodd;}
</style>
<polygon class="st0" points="12.001,5.607 6.394,0 6.001,0.394 5.607,0 0,5.607 1.402,7.008 5.001,3.41 5.001,20.001 7.001,20.001 
	7.001,3.41 10.599,7.008 "/>
</svg>
