<?xml version="1.0" encoding="utf-8"?>
<!-- Generator: Adobe Illustrator 19.2.0, SVG Export Plug-In . SVG Version: 6.00 Build 0)  -->
<svg version="1.1" id="Layer_1" xmlns="http://www.w3.org/2000/svg" xmlns:xlink="http://www.w3.org/1999/xlink" x="0px" y="0px"
	 viewBox="0 0 59.571 48.188" style="enable-background:new 0 0 59.571 48.188;" xml:space="preserve">
<style type="text/css">
	.st0{fill-rule:evenodd;clip-rule:evenodd;}
</style>
<path class="st0" d="M55.09,20.088c5.026-5.026,5.967-12.264,2.098-16.133c-3.87-3.87-11.107-2.929-16.134,2.097
	c-4.719,4.718-5.836,11.385-2.754,15.385l-7.741,7.741l-6.863-6.868c2.843-3.534,2.627-8.716-0.653-11.997L12.728,0l-1.414,1.414
	l10.314,10.314c2.498,2.498,2.706,6.41,0.639,9.153L6.976,5.58L5.586,6.971l15.289,15.3c-2.742,2.062-6.65,1.853-9.146-0.643
	L1.414,11.314L0,12.728l10.314,10.314c3.278,3.278,8.455,3.496,11.989,0.659l6.864,6.869L12.954,46.782l1.406,1.406l16.212-16.212
	L46.174,47.59l1.391-1.392L31.963,30.585l7.742-7.742C43.706,25.924,50.372,24.806,55.09,20.088z M42.473,7.505
	c4.244-4.237,10.206-5.179,13.29-2.099c3.085,3.08,2.141,9.032-2.103,13.269c-3.916,3.909-9.289,5.005-12.52,2.734l0.075-0.075
	l-1.406-1.406l-0.076,0.076C37.46,16.776,38.558,11.413,42.473,7.505z"/>
</svg>
