<?xml version="1.0" encoding="utf-8"?>
<!-- Generator: Adobe Illustrator 19.2.0, SVG Export Plug-In . SVG Version: 6.00 Build 0)  -->
<svg version="1.1" id="Layer_1" xmlns="http://www.w3.org/2000/svg" xmlns:xlink="http://www.w3.org/1999/xlink" x="0px" y="0px"
	 viewBox="0 0 17.008 17.015" style="enable-background:new 0 0 17.008 17.015;" xml:space="preserve">
<path d="M17.008,15.623l-4.42-4.424c0.879-1.171,1.406-2.62,1.406-4.194C13.994,3.142,10.855,0,6.997,0C3.139,0,0,3.142,0,7.005
	s3.139,7.005,6.997,7.005c1.578,0,3.03-0.532,4.202-1.417l4.418,4.423L17.008,15.623z M6.997,12.017
	c-2.761,0-5.008-2.242-5.008-4.997c0-2.755,2.246-4.997,5.008-4.997s5.008,2.242,5.008,4.997
	C12.004,9.776,9.758,12.017,6.997,12.017z"/>
</svg>
