{
    "key": "group_599bdd92e4ddf",
    "title": "Gallery",
    "fields": [
        {
            "key": "field_599bdda493a0f",
            "label": "Gallery",
            "name": "gallery",
            "type": "repeater",
            "instructions": "Please, add new photos.",
            "required": 0,
            "conditional_logic": 0,
            "wrapper": {
                "width": "",
                "class": "",
                "id": ""
            },
            "collapsed": "",
            "min": 1,
            "max": 200,
            "layout": "block",
            "button_label": "Add Photo",
            "sub_fields": [
                {
                    "key": "field_599bddec93a10",
                    "label": "Photo",
                    "name": "photo",
                    "type": "image",
                    "instructions": "Add new photo.",
                    "required": 1,
                    "conditional_logic": 0,
                    "wrapper": {
                        "width": "50",
                        "class": "",
                        "id": ""
                    },
                    "return_format": "array",
                    "preview_size": "thumbnail",
                    "library": "all",
                    "min_width": "",
                    "min_height": "",
                    "min_size": "",
                    "max_width": "",
                    "max_height": "",
                    "max_size": "",
                    "mime_types": ""
                },
                {
                    "key": "field_599bddfc93a11",
                    "label": "Category",
                    "name": "category",
                    "type": "taxonomy",
                    "instructions": "Select category of photos.",
                    "required": 1,
                    "conditional_logic": 0,
                    "wrapper": {
                        "width": "50",
                        "class": "",
                        "id": ""
                    },
                    "taxonomy": "category",
                    "field_type": "select",
                    "allow_null": 0,
                    "add_term": 1,
                    "save_terms": 0,
                    "load_terms": 0,
                    "return_format": "object",
                    "multiple": 0
                }
            ]
        }
    ],
    "location": [
        [
            {
                "param": "page_template",
                "operator": "==",
                "value": "templates\/template-gallery.php"
            }
        ]
    ],
    "menu_order": 0,
    "position": "acf_after_title",
    "style": "default",
    "label_placement": "top",
    "instruction_placement": "label",
    "hide_on_screen": [
        "the_content"
    ],
    "active": 1,
    "description": "",
    "modified": 1518604695
}